<svg xmlns="http://www.w3.org/2000/svg" width="300" height="300" viewBox="0 0 300 300">
	<defs>
		<filter id="a" color-interpolation-filters="sRGB">
			<feFlood flood-opacity=".16" flood-color="#000" result="flood"/>
			<feComposite in="flood" in2="SourceGraphic" operator="in" result="composite1"/>
			<feGaussianBlur in="composite1" stdDeviation="4" result="blur"/>
			<feOffset dx="12" result="offset"/>
			<feComposite in="SourceGraphic" in2="offset" result="fbSourceGraphic"/>
			<feColorMatrix result="fbSourceGraphicAlpha" in="fbSourceGraphic" values="0 0 0 -1 0 0 0 0 -1 0 0 0 0 -1 0 0 0 0 1 0"/>
			<feFlood flood-opacity=".16" flood-color="#000" result="flood"/>
			<feComposite in2="fbSourceGraphic" in="flood" operator="in" result="composite1"/>
			<feGaussianBlur in="composite1" stdDeviation="4" result="blur"/>
			<feOffset result="offset"/>
			<feComposite in2="offset" in="fbSourceGraphic" result="composite2"/>
		</filter>
	</defs>
	<path d="M150 757.362l125.574 72.5v145L150 1047.362l-125.574-72.5v-145z" fill="#389ebf" fill-rule="evenodd" filter="url(#a)" transform="translate(0 -752.362)"/>
</svg>